{
    "cities" : [
        {
            "id": 3189595,
            "name": "Subotica",
            "state": "",
            "country": "RS",
            "coord": {
            "lon": 19.66667,
            "lat": 46.099998
            }
        },
        {
            "id": 787607,
            "name": "Beograd",
            "state": "",
            "country": "RS",
            "coord": {
            "lon": 20.42417,
            "lat": 44.805561
            }
        },
        {
            "id": 3194360,
            "name": "Novi Sad",
            "state": "",
            "country": "RS",
            "coord": {
                "lon": 19.836941,
                "lat": 45.251671
            }
        },
        {
            "id": 2950158,
            "name": "Berlin",
            "state": "",
            "country": "DE",
            "coord": {
              "lon": 10.45,
              "lat": 54.033329
            }
        },
        {
          "id": 2968815,
          "name": "Paris",
          "state": "",
          "country": "FR",
          "coord": {
            "lon": 2.3486,
            "lat": 48.853401
          }
        },
        {
          "id": 2643743,
          "name": "London",
          "state": "",
          "country": "GB",
          "coord": {
            "lon": -0.12574,
            "lat": 51.50853
          }
        },
        {
          "id": 3186886,
          "name": "Zagreb",
          "state": "",
          "country": "HR",
          "coord": {
            "lon": 15.97798,
            "lat": 45.814442
          }
        },
        {
          "id": 3054638,
          "name": "Budapest",
          "state": "",
          "country": "HU",
          "coord": {
            "lon": 19.08333,
            "lat": 47.5
          }
        },
        {
          "id": 2761369,
          "name": "Vienna",
          "state": "",
          "country": "AT",
          "coord": {
            "lon": 16.37208,
            "lat": 48.208488
          }
        },
        {
          "id": 3204541,
          "name": "Banja Luka",
          "state": "",
          "country": "BA",
          "coord": {
            "lon": 17.18556,
            "lat": 44.775829
          }
        },
        {
          "id": 3196359,
          "name": "Ljubljana",
          "state": "",
          "country": "SI",
          "coord": {
            "lon": 14.50513,
            "lat": 46.051079
          }
        },
        {
          "id": 360630,
          "name": "Cairo",
          "state": "",
          "country": "EG",
          "coord": {
            "lon": 31.24967,
            "lat": 30.06263
          }
        },
        {
          "id": 524894,
          "name": "Moscow",
          "state": "",
          "country": "RU",
          "coord": {
            "lon": 37.606667,
            "lat": 55.761665
          }
        },
        {
          "id": 264371,
          "name": "Athens",
          "state": "",
          "country": "GR",
          "coord": {
            "lon": 23.716221,
            "lat": 37.97945
          }
        },
        {
          "id": 2618425,
          "name": "Copenhagen",
          "state": "",
          "country": "DK",
          "coord": {
            "lon": 12.56553,
            "lat": 55.675941
          }
        }
    ]
}